<?xml version="1.0" encoding="utf-8"?>
<!-- Generator: Adobe Illustrator 17.0.0, SVG Export Plug-In . SVG Version: 6.00 Build 0)  -->
<!DOCTYPE svg PUBLIC "-//W3C//DTD SVG 1.1//EN" "http://www.w3.org/Graphics/SVG/1.1/DTD/svg11.dtd">
<svg version="1.1" id="Layer_1" xmlns="http://www.w3.org/2000/svg" xmlns:xlink="http://www.w3.org/1999/xlink" x="0px" y="0px"
	 width="30px" height="30px" viewBox="-0.5 -0.5 30 30" enable-background="new -0.5 -0.5 30 30" xml:space="preserve">
<g>
	<path fill="#333333" d="M14.495,6.393c2.603,0,2.915,0,3.956,0.105c0.937,0,1.458,0.209,1.77,0.314
		c0.416,0.209,0.833,0.418,1.145,0.732s0.521,0.628,0.729,1.151c0.104,0.314,0.312,0.837,0.312,1.778
		c0,1.046,0.104,1.36,0.104,3.975s0,2.929-0.104,3.975c0,0.941-0.208,1.465-0.312,1.778c-0.208,0.418-0.416,0.837-0.729,1.151
		c-0.312,0.314-0.625,0.523-1.145,0.732c-0.312,0.105-0.833,0.314-1.77,0.314c-1.041,0-1.353,0.105-3.956,0.105
		s-2.915,0-3.956-0.105c-0.937,0-1.458-0.209-1.77-0.314c-0.521-0.105-0.833-0.418-1.249-0.732
		c-0.312-0.314-0.521-0.628-0.729-1.151c-0.104-0.314-0.312-0.837-0.312-1.778c0-1.046-0.104-1.36-0.104-3.975s0-2.929,0.104-3.975
		c0-0.941,0.208-1.465,0.312-1.778c0.208-0.523,0.416-0.837,0.729-1.255c0.416-0.314,0.729-0.523,1.145-0.732
		c0.312-0.105,0.833-0.314,1.77-0.314C11.579,6.393,11.892,6.393,14.495,6.393 M14.495,4.615c-2.707,0-3.019,0-4.06,0.105
		c-1.041,0-1.77,0.209-2.395,0.418C7.415,5.347,6.894,5.661,6.27,6.184C5.749,6.707,5.437,7.23,5.124,7.962
		C4.916,8.59,4.615,9.845,4.615,10.891c0,1.046-0.011,6.59,0.093,7.636c0,1.046,0.208,1.778,0.416,2.406
		c0.208,0.628,0.625,1.151,1.145,1.778c0.521,0.523,1.041,0.837,1.77,1.151c0.625,0.209,1.353,0.418,2.395,0.418
		s1.353,0.105,4.06,0.105s3.019,0,4.06-0.105c1.041,0,1.77-0.209,2.395-0.418c0.625-0.209,1.145-0.628,1.77-1.151
		c0.521-0.523,0.833-1.046,1.145-1.778c0.208-0.628,0.416-1.36,0.416-2.406s0.104-1.36,0.104-4.08s0-3.034-0.104-4.08
		c0-1.046-0.208-1.778-0.416-2.406c-0.208-0.628-0.625-1.151-1.145-1.778c-0.521-0.523-1.041-0.837-1.77-1.151
		c-0.625-0.209-1.353-0.418-2.395-0.418C17.514,4.615,17.097,4.615,14.495,4.615"/>
	<path fill="#333333" d="M14.495,9.322c-2.811,0-4.997,2.301-4.997,5.021c0,2.824,2.291,5.021,4.997,5.021
		c2.811,0,4.997-2.301,4.997-5.021S17.306,9.322,14.495,9.322 M14.495,17.691c-1.77,0-3.228-1.465-3.228-3.243
		s1.458-3.243,3.228-3.243s3.228,1.465,3.228,3.243C17.722,16.226,16.265,17.691,14.495,17.691"/>
	<path fill="#333333" d="M20.846,9.329c0,0.628-0.521,1.151-1.145,1.151c-0.625,0-1.145-0.523-1.145-1.151
		c0-0.628,0.521-1.151,1.145-1.151C20.325,8.073,20.846,8.596,20.846,9.329"/>
</g>
</svg>
