<?xml version="1.0" encoding="utf-8"?>
<!-- Generator: Adobe Illustrator 17.0.0, SVG Export Plug-In . SVG Version: 6.00 Build 0)  -->
<!DOCTYPE svg PUBLIC "-//W3C//DTD SVG 1.1//EN" "http://www.w3.org/Graphics/SVG/1.1/DTD/svg11.dtd">
<svg version="1.1" xmlns="http://www.w3.org/2000/svg" xmlns:xlink="http://www.w3.org/1999/xlink" x="0px" y="0px" width="143px"
	 height="38px" viewBox="0 0 143 38" enable-background="new 0 0 143 38" xml:space="preserve">
<g id="Layer_2">
</g>
<g id="Layer_1">
	<path fill="#FF7674" d="M3.976,15.839H2.067v-1.324h2.21l0.536-2.44H2.905v-1.307h2.21l0.619-2.728h1.641l-0.603,2.728h1.975
		l0.619-2.728h1.641l-0.603,2.728h1.926v1.307h-2.227l-0.553,2.44h1.926v1.324H9.25l-0.603,2.711H7.006l0.603-2.711H5.617
		l-0.603,2.711H3.374L3.976,15.839z M7.91,14.515l0.553-2.44H6.471l-0.553,2.44H7.91z"/>
	<g>
		<path fill="#111111" d="M19.565,8.689H16V7.107h9.424l-0.56,1.581h-3.34v10.134h-1.96V8.689z"/>
		<path fill="#111111" d="M25.841,13.009c0-3.556,2.557-6.009,6.14-6.009c3.602,0,6.121,2.489,6.121,6.009
			c0,3.627-2.613,5.991-6.121,5.991C28.417,19,25.841,16.618,25.841,13.009z M36.031,13.009c0-2.649-1.53-4.426-4.049-4.426
			c-2.427,0-4.05,1.689-4.05,4.426s1.623,4.409,4.05,4.409C34.408,17.418,36.031,15.747,36.031,13.009z"/>
		<path fill="#111111" d="M40.655,7.107h2.743c1.176,0,2.035,0.16,2.744,0.515c1.213,0.604,1.922,1.725,1.922,3.271
			c0,1.37-0.615,2.72-2.258,3.378c-0.653,0.267-1.474,0.427-2.575,0.427h-0.616v4.124h-1.959V7.107z M43.361,13.169
			c0.672,0,1.176-0.106,1.549-0.302c0.746-0.337,1.101-1.031,1.101-1.973c0-0.836-0.336-1.529-1.027-1.92
			c-0.392-0.214-0.915-0.337-1.642-0.337h-0.728v4.533H43.361z"/>
		<path fill="#111111" d="M51.048,16.601c0.672,0.426,1.605,0.817,2.724,0.817c1.139,0,2.202-0.409,2.202-1.546
			c0-2.471-5.356-2.169-5.356-5.707C50.619,8.44,52.037,7,54.501,7c1.213,0,2.258,0.267,2.893,0.587v1.689
			c-0.915-0.445-1.866-0.693-2.837-0.693c-0.933,0-1.848,0.356-1.848,1.405c0,2.311,5.338,2.044,5.338,5.724
			c0,2.045-1.773,3.289-4.236,3.289c-1.419,0-2.688-0.391-3.546-0.978L51.048,16.601z"/>
		<path fill="#111111" d="M60.573,7.107h1.959v4.942h6.159V7.107h1.959v11.715h-1.959v-5.191h-6.159v5.191h-1.959V7.107z"/>
		<path fill="#111111" d="M73.221,13.009c0-3.556,2.557-6.009,6.14-6.009c3.602,0,6.121,2.489,6.121,6.009
			c0,3.627-2.613,5.991-6.121,5.991C75.797,19,73.221,16.618,73.221,13.009z M83.411,13.009c0-2.649-1.53-4.426-4.049-4.426
			c-2.427,0-4.05,1.689-4.05,4.426s1.623,4.409,4.05,4.409C81.787,17.418,83.411,15.747,83.411,13.009z"/>
		<path fill="#111111" d="M86.312,7.107h2.202l2.295,6.844c0.224,0.657,0.467,1.404,0.672,2.187h0.057
			c0.223-0.8,0.448-1.459,0.709-2.169l1.717-4.836l-0.747-2.026h2.016l2.407,6.773c0.243,0.693,0.541,1.475,0.746,2.24h0.038
			c0.205-0.782,0.392-1.458,0.634-2.204l2.202-6.808h2.015L99.17,18.894h-1.642l-1.885-5.138c-0.28-0.782-0.541-1.44-0.728-2.151
			H94.86c-0.206,0.711-0.429,1.333-0.728,2.133l-1.922,5.156h-1.605L86.312,7.107z"/>
		<path fill="#111111" d="M105.09,7.107h1.791l3.303,4.586c0.448,0.658,0.765,1.103,1.064,1.582h0.037
			c0.261-0.462,0.598-0.995,1.027-1.654l3.042-4.515h1.811v11.715h-1.96v-6.916c0-0.516,0-1.174,0.019-1.689h-0.019
			c-0.206,0.391-0.635,1.013-0.859,1.35l-2.631,3.929h-0.933l-2.892-4.018c-0.261-0.355-0.598-0.799-0.84-1.244h-0.037
			c0.037,0.497,0.037,1.173,0.037,1.635v6.952h-1.959V7.107z"/>
		<path fill="#111111" d="M120.363,7.107h6.513l-0.561,1.581h-3.993v3.378h3.975v1.582h-3.975v3.591h4.61v1.582h-6.568V7.107z"/>
		<path fill="#111111" d="M138.401,18.823l-5.523-6.933c-0.616-0.747-1.083-1.387-1.512-1.938h-0.037
			c0.037,0.516,0.056,1.12,0.056,1.885v6.987h-1.959V7.107h1.922l5.318,6.666c0.635,0.783,1.12,1.422,1.511,1.992h0.038
			c-0.019-0.623-0.038-1.28-0.038-2.009V7.107h1.96v11.715H138.401z"/>
	</g>
	<g>
		<path fill="#8E9194" d="M20.439,31.573c-0.759,0.401-1.507,0.528-2.211,0.528c-2.3,0-3.598-1.468-3.598-3.505
			c0-2.017,1.496-3.622,3.763-3.622c0.78,0,1.44,0.159,1.858,0.349v1.035c-0.539-0.274-1.122-0.443-1.837-0.443
			c-1.628,0-2.553,1.204-2.553,2.65c0,1.531,0.958,2.598,2.498,2.598c0.704,0,1.254-0.19,1.76-0.465L20.439,31.573z"/>
		<path fill="#8E9194" d="M21.155,28.543c0-2.112,1.508-3.569,3.62-3.569c2.123,0,3.608,1.479,3.608,3.569
			c0,2.154-1.54,3.558-3.608,3.558C22.673,32.101,21.155,30.686,21.155,28.543z M27.161,28.543c0-1.573-0.901-2.629-2.387-2.629
			c-1.431,0-2.388,1.003-2.388,2.629c0,1.626,0.957,2.619,2.388,2.619C26.204,31.161,27.161,30.169,27.161,28.543z"/>
		<path fill="#8E9194" d="M29.606,28.543c0-2.112,1.508-3.569,3.62-3.569c2.123,0,3.608,1.479,3.608,3.569
			c0,2.154-1.54,3.558-3.608,3.558C31.124,32.101,29.606,30.686,29.606,28.543z M35.613,28.543c0-1.573-0.901-2.629-2.387-2.629
			c-1.431,0-2.388,1.003-2.388,2.629c0,1.626,0.957,2.619,2.388,2.619C34.656,31.161,35.613,30.169,35.613,28.543z"/>
		<path fill="#8E9194" d="M38.27,25.037h4.401l-0.319,0.908h-2.927v1.837h0.572c0.803,0,1.441,0.095,1.937,0.338
			c0.671,0.327,1.034,0.908,1.034,1.742c0,1.246-0.781,2.133-2.872,2.133H38.27V25.037z M40.129,31.077
			c1.134,0,1.661-0.38,1.661-1.183c0-0.476-0.187-0.813-0.527-0.993c-0.298-0.159-0.716-0.201-1.243-0.201h-0.595v2.376H40.129z"/>
		<path fill="#8E9194" d="M44.314,25.037h1.155v6.008h2.409v-6.008h1.155v6.008h2.409v-6.008h1.155v6.008h0.913v2.904h-1.122v-1.954
			h-8.075V25.037z"/>
		<path fill="#8E9194" d="M54.764,25.037h3.84l-0.33,0.94h-2.354v2.006h2.344v0.939h-2.344v2.133h2.718v0.94h-3.873V25.037z"/>
		<path fill="#8E9194" d="M65.52,31.573c-0.759,0.401-1.507,0.528-2.211,0.528c-2.3,0-3.598-1.468-3.598-3.505
			c0-2.017,1.496-3.622,3.763-3.622c0.78,0,1.44,0.159,1.858,0.349v1.035c-0.539-0.274-1.122-0.443-1.837-0.443
			c-1.628,0-2.553,1.204-2.553,2.65c0,1.531,0.958,2.598,2.498,2.598c0.704,0,1.254-0.19,1.76-0.465L65.52,31.573z"/>
		<path fill="#8E9194" d="M68.406,25.977h-2.102v-0.94h5.556l-0.33,0.94h-1.97v6.019h-1.154V25.977z"/>
		<path fill="#8E9194" d="M72.954,25.037h1.98c1.552,0,2.244,0.845,2.244,1.764c0,0.644-0.33,1.204-0.913,1.457v0.021
			c0.848,0.19,1.387,0.855,1.387,1.689c0,1.109-0.858,2.027-2.52,2.027h-2.179V25.037z M74.792,27.994
			c0.813,0,1.243-0.401,1.243-1.024c0-0.581-0.374-1.014-1.243-1.014H74.11v2.038H74.792z M75.034,31.077
			c0.901,0,1.44-0.317,1.44-1.098c0-0.666-0.517-1.067-1.32-1.067H74.11v2.165H75.034z"/>
		<path fill="#8E9194" d="M78.772,28.543c0-2.112,1.508-3.569,3.62-3.569c2.123,0,3.608,1.479,3.608,3.569
			c0,2.154-1.54,3.558-3.608,3.558C80.29,32.101,78.772,30.686,78.772,28.543z M84.779,28.543c0-1.573-0.901-2.629-2.387-2.629
			c-1.431,0-2.388,1.003-2.388,2.629c0,1.626,0.957,2.619,2.388,2.619C83.822,31.161,84.779,30.169,84.779,28.543z"/>
		<path fill="#8E9194" d="M91.157,25.037h1.98c1.552,0,2.244,0.845,2.244,1.764c0,0.644-0.33,1.204-0.913,1.457v0.021
			c0.848,0.19,1.387,0.855,1.387,1.689c0,1.109-0.858,2.027-2.52,2.027h-2.179V25.037z M92.995,27.994
			c0.813,0,1.243-0.401,1.243-1.024c0-0.581-0.374-1.014-1.243-1.014h-0.683v2.038H92.995z M93.238,31.077
			c0.901,0,1.44-0.317,1.44-1.098c0-0.666-0.517-1.067-1.32-1.067h-1.045v2.165H93.238z"/>
		<path fill="#8E9194" d="M97.247,25.037h3.84l-0.33,0.94h-2.354v2.006h2.344v0.939h-2.344v2.133h2.718v0.94h-3.873V25.037z"/>
		<path fill="#8E9194" d="M102.177,31.045h0.439c1.002-1.193,1.706-3.326,2.135-6.008h3.422v6.008h0.913v2.904h-1.122v-1.954h-4.665
			v1.954h-1.122V31.045z M107.018,25.945h-1.354c-0.341,2.26-1.034,4.023-1.749,5.079v0.021h3.103V25.945z"/>
		<path fill="#8E9194" d="M110.392,32.038v-0.951c0.144,0.021,0.286,0.042,0.418,0.042c0.639,0,0.902-0.37,1.31-1.141l-2.585-4.952
			h1.287l1.881,3.812h0.022l1.716-3.812h1.266l-2.542,5.28c-0.616,1.288-1.298,1.763-2.244,1.763
			C110.799,32.08,110.568,32.069,110.392,32.038z"/>
		<path fill="#8E9194" d="M116.852,25.037h1.155v6.008h2.409v-6.008h1.155v6.008h2.409v-6.008h1.155v6.008h0.913v2.904h-1.122
			v-1.954h-8.075V25.037z"/>
		<path fill="#8E9194" d="M127.301,25.037h1.155v3.949c0,0.433-0.011,0.824-0.021,1.193h0.021c0.231-0.338,0.518-0.718,0.892-1.183
			l3.103-3.96h1.133v6.958h-1.155v-4.15c0-0.454,0-0.813,0.022-1.119h-0.022c-0.242,0.327-0.517,0.708-0.88,1.151l-3.224,4.118
			h-1.023V25.037z"/>
		<path fill="#8E9194" d="M137.32,28.5l-2.376-3.463h1.31l1.804,2.619l1.893-2.619h1.276l-2.509,3.432l2.432,3.527h-1.31
			l-1.848-2.682l-1.97,2.682h-1.265L137.32,28.5z"/>
	</g>
</g>
<g id="Layer_3">
</g>
</svg>
